%YAML 1.1
%TAG !u! tag:unity3d.com,2011:
--- !u!114 &11400000
MonoBehaviour:
  m_ObjectHideFlags: 0
  m_PrefabParentObject: {fileID: 0}
  m_PrefabInternal: {fileID: 0}
  m_GameObject: {fileID: 0}
  m_Enabled: 1
  m_EditorHideFlags: 0
  m_Script: {fileID: 11500000, guid: d7fd9488000d3734a9e00ee676215985, type: 3}
  m_Name: VolumeSettings
  m_EditorClassIdentifier: 
  components:
  - {fileID: 114527594671542966}
  - {fileID: 114339849572665496}
  - {fileID: 114914201461855468}
  - {fileID: 114698408567805600}
--- !u!114 &114339849572665496
MonoBehaviour:
  m_ObjectHideFlags: 0
  m_PrefabParentObject: {fileID: 0}
  m_PrefabInternal: {fileID: 0}
  m_GameObject: {fileID: 0}
  m_Enabled: 1
  m_EditorHideFlags: 0
  m_Script: {fileID: 11500000, guid: 0d7593b3a9277ac4696b20006c21dde2, type: 3}
  m_Name: 
  m_EditorClassIdentifier: 
  active: 0
  skyType:
    m_OverrideState: 1
    m_Value: 2
  fogType:
    m_OverrideState: 1
    m_Value: 2
--- !u!114 &114527594671542966
MonoBehaviour:
  m_ObjectHideFlags: 0
  m_PrefabParentObject: {fileID: 0}
  m_PrefabInternal: {fileID: 0}
  m_GameObject: {fileID: 0}
  m_Enabled: 1
  m_EditorHideFlags: 0
  m_Script: {fileID: 11500000, guid: 7ddcec8a8eb2d684d833ac8f5d26aebd, type: 3}
  m_Name: 
  m_EditorClassIdentifier: 
  active: 1
  maxShadowDistance:
    m_OverrideState: 1
    m_Value: 700
    min: 0
  cascadeShadowSplitCount:
    m_OverrideState: 1
    m_Value: 4
    min: 1
    max: 4
  cascadeShadowSplit0:
    m_OverrideState: 1
    m_Value: 0.005
    min: 0
    max: 1
  cascadeShadowSplit1:
    m_OverrideState: 1
    m_Value: 0.015
    min: 0
    max: 1
  cascadeShadowSplit2:
    m_OverrideState: 1
    m_Value: 0.3
    min: 0
    max: 1
  cascadeShadowBorder0:
    m_OverrideState: 1
    m_Value: 0
    min: 0
  cascadeShadowBorder1:
    m_OverrideState: 1
    m_Value: 0
    min: 0
  cascadeShadowBorder2:
    m_OverrideState: 1
    m_Value: 0
    min: 0
  cascadeShadowBorder3:
    m_OverrideState: 1
    m_Value: 0
    min: 0
--- !u!114 &114698408567805600
MonoBehaviour:
  m_ObjectHideFlags: 0
  m_PrefabParentObject: {fileID: 0}
  m_PrefabInternal: {fileID: 0}
  m_GameObject: {fileID: 0}
  m_Enabled: 1
  m_EditorHideFlags: 0
  m_Script: {fileID: 11500000, guid: 2150ee00179b2f4418ea8b21a7e98eea, type: 3}
  m_Name: 
  m_EditorClassIdentifier: 
  active: 0
  colorMode:
    m_OverrideState: 1
    m_Value: 1
  color:
    m_OverrideState: 1
    m_Value: {r: 0.5, g: 0.5, b: 0.5, a: 1}
    hdr: 0
    showAlpha: 1
    showEyeDropper: 1
  density:
    m_OverrideState: 1
    m_Value: 1
    min: 0
    max: 1
  mipFogMaxMip:
    m_OverrideState: 1
    m_Value: 0.5
    min: 0
    max: 1
  mipFogNear:
    m_OverrideState: 1
    m_Value: 0
    min: 0
  mipFogFar:
    m_OverrideState: 1
    m_Value: 1000
    min: 0
  fogDistance:
    m_OverrideState: 1
    m_Value: 200
    min: 0
  fogBaseHeight:
    m_OverrideState: 1
    m_Value: 0
  fogHeightAttenuation:
    m_OverrideState: 1
    m_Value: 0.2
    min: 0
    max: 1
--- !u!114 &114914201461855468
MonoBehaviour:
  m_ObjectHideFlags: 0
  m_PrefabParentObject: {fileID: 0}
  m_PrefabInternal: {fileID: 0}
  m_GameObject: {fileID: 0}
  m_Enabled: 1
  m_EditorHideFlags: 0
  m_Script: {fileID: 11500000, guid: 3df29e7cc05fbec4aa43e06ea875565d, type: 3}
  m_Name: 
  m_EditorClassIdentifier: 
  active: 1
  rotation:
    m_OverrideState: 1
    m_Value: 0
    min: 0
    max: 360
  exposure:
    m_OverrideState: 1
    m_Value: 1.25
  multiplier:
    m_OverrideState: 1
    m_Value: 1
    min: 0
  updateMode:
    m_OverrideState: 1
    m_Value: 0
  updatePeriod:
    m_OverrideState: 1
    m_Value: 0
    min: 0
  sunSize:
    m_OverrideState: 1
    m_Value: 0.04
    min: 0
    max: 1
  sunSizeConvergence:
    m_OverrideState: 1
    m_Value: 5
    min: 1
    max: 10
  atmosphereThickness:
    m_OverrideState: 1
    m_Value: 0.5
    min: 0
    max: 5
  skyTint:
    m_OverrideState: 1
    m_Value: {r: 1, g: 1, b: 1, a: 1}
    hdr: 0
    showAlpha: 1
    showEyeDropper: 1
  groundColor:
    m_OverrideState: 1
    m_Value: {r: 0.59927905, g: 0.6172068, b: 0.6320754, a: 1}
    hdr: 0
    showAlpha: 1
    showEyeDropper: 1
  enableSunDisk:
    m_OverrideState: 1
    m_Value: 1
